General Studies Essay,Coursework,09/04/19,35,General Studies
General Studies Exam,Exam,09/05/19,65,General Studies
Album Database,Exam,25/05/19,25,Programming
Toll Road,Coursework,24/04/19,25,Programming
E-Commerce App,Coursework,31/03/19,60,Mobile Development
Study Planner 1,Coursework,13/03/19,40,Software Engineering
Study Planner 2,Coursework,02/05/19,60,Software Engineering
